Intro to tensorflow - Edgar's Data Lab
…
model_predict <- predict(model, titanic_input_fn(test))

As of today, predictions are returned in a list object. The following tidyverse code can be used to review or save the data in a tidy set.

tidy_model <- model_predict %>%
  map(~ .x %>%
        map(~.x[[1]]) %>%
        flatten() %>% 
        as_tibble()) %>%
  bind_rows() %>%
  bind_cols(test)

tidy_model 

## # A tibble: 143 x 17
##        logits  logistic probabilities class_ids classes PassengerId
##         <dbl>     <dbl>         <dbl>     <dbl>   <chr>       <int>
##  1 -1.7780590 0.1445430     0.8554570         0       0           5
##  2 -1.7780590 0.1445430     0.8554570         0       0          13
##  3 -0.6724223 0.3379547     0.6620453         0       0          15
##  4 -1.4158477 0.1953134     0.8046867         0       0          21
##  5 -1.0536363 0.2585275     0.7414725         0       0          28
##  6 -0.5420590 0.3677087     0.6322913         0       0          31
##  7 -0.6724223 0.3379547     0.6620453         0       0          39
##  8 -0.1608451 0.4598752     0.5401248         0       0          40
##  9 -1.7780590 0.1445430     0.8554570         0       0          52
## 10 -1.7780590 0.1445430     0.8554570         0       0          64
## # ... with 133 more rows, and 11 more variables: Survived <int>,
## #   Pclass <int>, Name <chr>, Sex <chr>, Age <dbl>, SibSp <int>,
## #   Parch <int>, Ticket <chr>, Fare <dbl>, Cabin <chr>, Embarked <chr>
…
