Sentiment analysis using tidytext - Edgar's Data Lab
…
tidy_tweets <- tibble(
  screen_name = tweets %>% map_chr(~.x$screenName),
  tweetid = tweets %>% map_chr(~.x$id),
  created_timestamp = seq_len(length(tweets)) %>% map_chr(~as.character(tweets[[.x]]$created)),
  is_retweet = tweets %>% map_chr(~.x$isRetweet),
  text = tweets %>% map_chr(~.x$text)
) %>%
  mutate(created_date = as.Date(created_timestamp)) %>%
  filter(is_retweet == FALSE,
         substr(text, 1,2) != "RT")

tidy_tweets

## # A tibble: 2,389 x 6
##      screen_name            tweetid   created_timestamp is_retweet
##            <chr>              <chr>               <chr>      <chr>
##  1     kearneymw 904169552526934017 2017-09-03 02:29:54      FALSE
##  2 ahmad_m_mobin 904167193428074496 2017-09-03 02:20:32      FALSE
##  3   SanghaChick 904166809083027457 2017-09-03 02:19:00      FALSE
##  4     SavranWeb 904165843533213696 2017-09-03 02:15:10      FALSE
##  5      nibrivia 904165791972687872 2017-09-03 02:14:58      FALSE
##  6  Cruz_Julian_ 904162499343376385 2017-09-03 02:01:53      FALSE
##  7  zabormetrics 904157256408813569 2017-09-03 01:41:03      FALSE
##  8   AriLamstein 904156509755637760 2017-09-03 01:38:04      FALSE
##  9    o_gonzales 904151758754238464 2017-09-03 01:19:12      FALSE
## 10     Rbloggers 904149400884215809 2017-09-03 01:09:50      FALSE
## # ... with 2,379 more rows, and 2 more variables: text <chr>,
## #   created_date <date>
…
The unnest_tokens() command from the tidytext package easily transforms the existing tidy table with one row (observation) per tweet, to a table with one row (token) per word inside the tweet.

library(tidytext)

tweet_words <- tidy_tweets %>%
  select(tweetid,
         screen_name,
         text,
         created_date) %>%
  unnest_tokens(word, text)

tweet_words

## # A tibble: 37,846 x 4
##               tweetid   screen_name created_date       word
##                 <chr>         <chr>       <date>      <chr>
##  1 904169552526934017     kearneymw   2017-09-03        new
##  2 904169552526934017     kearneymw   2017-09-03        hex
##  3 904169552526934017     kearneymw   2017-09-03    sticker
##  4 904169552526934017     kearneymw   2017-09-03        for
##  5 904169552526934017     kearneymw   2017-09-03     rtweet
##  6 904169552526934017     kearneymw   2017-09-03     rstats
##  7 904169552526934017     kearneymw   2017-09-03      https
##  8 904169552526934017     kearneymw   2017-09-03       t.co
##  9 904169552526934017     kearneymw   2017-09-03 dfvl8xj2x6
## 10 904167193428074496 ahmad_m_mobin   2017-09-03     pretty
## # ... with 37,836 more rows

Stop words

The stop_words table is part of tidytext, it contains common words that can be used to discard from an analysis. This is the kind of list that analysts usually have to find online and then clean up manually.

stop_words  

## # A tibble: 1,149 x 2
##           word lexicon
##          <chr>   <chr>
##  1           a   SMART
##  2         a's   SMART
##  3        able   SMART
##  4       about   SMART
##  5       above   SMART
##  6   according   SMART
##  7 accordingly   SMART
##  8      across   SMART
##  9    actually   SMART
## 10       after   SMART
## # ... with 1,139 more rows
…
Sentiment matching

The get_sentiments() functions in tidytext makes it really easy to match words against different lexicons (vocabularies). The NRC lexicon was chosen for this analysis. The get_sentiments() function returns a data frame, a simple table join makes the lexicon part of the analysis.

nrc_words <- no_stop_words %>%
  inner_join(get_sentiments("nrc"), by = "word")

nrc_words 

## # A tibble: 4,126 x 5
##               tweetid   screen_name created_date   word    sentiment
##                 <chr>         <chr>       <date>  <chr>        <chr>
##  1 904167193428074496 ahmad_m_mobin   2017-09-03 pretty anticipation
##  2 904167193428074496 ahmad_m_mobin   2017-09-03 pretty          joy
##  3 904167193428074496 ahmad_m_mobin   2017-09-03 pretty     positive
##  4 904167193428074496 ahmad_m_mobin   2017-09-03 pretty        trust
##  5 904167193428074496 ahmad_m_mobin   2017-09-03   cool     positive
##  6 904166809083027457   SanghaChick   2017-09-03    fun anticipation
##  7 904166809083027457   SanghaChick   2017-09-03    fun          joy
##  8 904166809083027457   SanghaChick   2017-09-03    fun     positive
##  9 904165843533213696     SavranWeb   2017-09-03 script     positive
## 10 904165791972687872      nibrivia   2017-09-03  start anticipation
## # ... with 4,116 more rows
…
